Unprofessional Output Example
…
ℹ Use `spec()` to retrieve the full column specification for this data.
ℹ Specify the column types or set `show_col_types = FALSE` to quiet this message.

elephants

Simple feature collection with 283688 features and 9 fields
Geometry type: POINT
Dimension:     XY
Bounding box:  xmin: 31.06269 ymin: -25.37676 xmax: 32.00439 ymax: -23.97868
Geodetic CRS:  WGS 84
# A tibble: 283,688 × 10
   `event-id` visible timestamp           `external-temperature` `sensor-type`
 *      <dbl> <lgl>   <dttm>                               <dbl> <chr>        
 1 9421351127 TRUE    2007-08-13 00:30:00                     24 gps          
 2 9421351128 TRUE    2007-08-13 02:00:00                     23 gps          
 3 9421351129 TRUE    2007-08-13 03:31:00                     21 gps          
 4 9421351130 TRUE    2007-08-13 04:00:00                     21 gps          
 5 9421351131 TRUE    2007-08-13 06:00:00                     22 gps          
 6 9421351132 TRUE    2007-08-13 07:30:00                     30 gps          
 7 9421351133 TRUE    2007-08-13 08:00:00                     33 gps          
 8 9421351134 TRUE    2007-08-13 11:30:00                     36 gps          
 9 9421351135 TRUE    2007-08-13 12:00:00                     36 gps          
10 9421351136 TRUE    2007-08-13 15:30:00                     33 gps          
# ℹ 283,678 more rows
# ℹ 5 more variables: `individual-taxon-canonical-name` <chr>,
#   `tag-local-identifier` <chr>, `individual-local-identifier` <chr>,
#   `study-name` <chr>, geometry <POINT [°]>
…
